id,setor,peso
2,"Reitoria (gabinete, procuradoria e SEODS)",2
2,Pró-reitoria de Graduação (PROGRAD),2
2,Pró-reitoria de Extensão (PROEX),2
2,Pró-reitoria de Cultura (PROCULT),2
2,Pró-reitoria de Administração (PROAD) (incluindo vigilância e limpeza),2
2,Pró-reitoria de Planejamento (PROPLAN),2
2,"Pró-reitoria de Pesquisa, Pós-graduação e Inovação (PRPI)",2
2,Pró-reitoria de Assuntos Estudantis (PRAE),2
2,Pró-reitoria de Gestão de Pessoas (PROGEP),2
1,Secretaria de Cooperação Internacional,1
1,Secretaria de Acessibilidade,1
1,Ouvidoria geral,1
1,Departamento de Logística e Apoio Operacional (DLA) (incluindo transporte),1
1,Diretoria de Comunicação (DCom),1
1,Diretoria de Articulação e Relações Institucionais (Diari),1
1,Diretoria de Infraestrutura (DInfra),1
1,Diretoria de Tecnologia da Informação (DTI),1
2,"Diretoria do Sistema de Bibliotecas (SIBI) (incluindo Crato, Brejo Santo, Barbalha)",2
3,Centro de Ciências Agrárias e da Biodiversidade (CCAB),3
3,Centro de Ciências e Tecnologia (CCT),3
3,Centro de Ciências Sociais Aplicadas (CCSA),3
3,Faculdade de Medicina (Famed),3
4,Ambulatório Famed,4
3,"Instituto Interdisciplinar de Sociedade, Cultura e Artes (IISCA)",3
3,Instituto de Formação de Educadores (IFE),3
4,Refeitório Universitário -  Barbalha,4
4,Refeitório Universitário - Crato,4
4,Refeitório Universitário - Juazeiro do Norte,4